…
    ## Calculating cluster 2

    ## Calculating cluster 3

    ## Calculating cluster 4

    ## Calculating cluster 5

    allmarkers <- tumor.data.markers %>%
      group_by(cluster) %>%
      slice_max(n = 5, order_by = avg_log2FC)

    allmarkers

    ## # A tibble: 30 × 7
    ## # Groups:   cluster [6]
    ##        p_val avg_log2FC pct.1 pct.2 p_val_adj cluster gene    
    ##        <dbl>      <dbl> <dbl> <dbl>     <dbl> <fct>   <chr>   
    ##  1 1.29e-154       1.97 0.926 0.198 2.57e-150 0       APOC2   
    ##  2 2.27e-130       1.84 0.724 0.005 4.52e-126 0       TRIML2  
    ##  3 3.42e-134       1.66 0.751 0.017 6.82e-130 0       SERPINA1
    ##  4 2.48e-101       1.59 0.658 0.051 4.95e- 97 0       SEPP1   
    ##  5 9.94e- 93       1.57 0.677 0.111 1.98e- 88 0       RDH5    
    ##  6 7.28e-206       2.72 0.925 0.004 1.45e-201 1       SAA1    
    ##  7 4.11e-138       2.37 1     0.125 8.21e-134 1       TF      
    ##  8 1.96e-190       2.13 0.947 0.022 3.90e-186 1       SFRP1   
    ##  9 1.64e-129       2.06 0.97  0.122 3.27e-125 1       RGS5    
    ## 10 1.44e-103       1.94 0.91  0.163 2.88e- 99 1       C1QTNF3 
    ## # … with 20 more rows
…
