…
    ## Calculating cluster 2

    ## Calculating cluster 3

    ## Calculating cluster 4

    ## Calculating cluster 5

    allmarkers <- celltype.data.markers %>%
      group_by(cluster) %>%
      slice_max(n = 5, order_by = avg_log2FC)

    allmarkers

    ## # A tibble: 30 × 7
    ## # Groups:   cluster [6]
    ##        p_val avg_log2FC pct.1 pct.2 p_val_adj cluster gene 
    ##        <dbl>      <dbl> <dbl> <dbl>     <dbl> <fct>   <chr>
    ##  1 3.89e-285       2.75 0.891 0.046 8.49e-281 0       CD3D 
    ##  2 9.33e-276       2.57 0.876 0.038 2.03e-271 0       CD2  
    ##  3 2.68e-268       2.33 0.893 0.133 5.84e-264 0       IL32 
    ##  4 6.30e-275       2.27 0.877 0.043 1.37e-270 0       CD3E 
    ##  5 3.09e-129       2.19 0.573 0.053 6.74e-125 0       NKG7 
    ##  6 0               2.75 0.97  0.081 0         1       MS4A1
    ##  7 0               2.72 0.976 0.067 0         1       CD79A
    ##  8 0               2.60 0.879 0.035 0         1       BANK1
    ##  9 0               2.57 0.806 0.014 0         1       CD19 
    ## 10 3.65e-274       2.36 0.706 0.062 7.95e-270 1       IGLL5
    ## # … with 20 more rows
…
